{
  "questionID":"2077",
  "type":3,
  "background":"assets\/background\/2077_background.png",
  "questionAudio":"audio\/2077_question.m4a",
  "targetData":{
    "image":"assets\/ui\/2077_droptarget.png",
    "highlight":"assets\/ui\/selection.png",
    "left":"529px",
    "top":"230px"
  },
  "choices":[
    {
      "answerID":"5724",
      "image":"assets\/answer\/2077_1.png",
      "left":"29px",
      "top":"471px",
      "correct":false
    },
    {
      "answerID":"5725",
      "image":"assets\/answer\/2077_2.png",
      "left":"285px",
      "top":"471px",
      "correct":false
    },
    {
      "answerID":"5726",
      "image":"assets\/answer\/2077_3.png",
      "left":"540px",
      "top":"471px",
      "correct":true
    },
    {
      "answerID":"5727",
      "image":"assets\/answer\/2077_4.png",
      "left":"795px",
      "top":"471px",
      "correct":false
    }
  ]
}