{
  "questionID":"215",
  "type":3,
  "background":"assets\/background\/215_background.png",
  "questionAudio":"audio\/215_question.m4a",
  "targetData":{
    "image":"assets\/ui\/215_droptarget.png",
    "highlight":"assets\/ui\/selection.png",
    "left":"529px",
    "top":"229px"
  },
  "choices":[
    {
      "answerID":"1060",
      "image":"assets\/answer\/215_1.png",
      "left":"29px",
      "top":"471px",
      "correct":false
    },
    {
      "answerID":"1061",
      "image":"assets\/answer\/215_2.png",
      "left":"285px",
      "top":"471px",
      "correct":false
    },
    {
      "answerID":"1062",
      "image":"assets\/answer\/215_3.png",
      "left":"540px",
      "top":"471px",
      "correct":false
    },
    {
      "answerID":"1063",
      "image":"assets\/answer\/215_4.png",
      "left":"795px",
      "top":"471px",
      "correct":true
    }
  ]
}