{
  "questionID":"4000",
  "type":"1",
  "background":"assets\/background\/4000_background.png",
  "questionAudio":"audio\/4000_question.m4a",
  "choices":[
    {
      "answerID":"4900",
      "image":"assets\/answer\/4000_1.png",
      "left":"29px",
      "top":"471px",
      "correct":false,
      "selectionHighlight":"assets\/ui\/selection.png"
    },
    {
      "answerID":"4901",
      "image":"assets\/answer\/4000_2.png",
      "left":"285px",
      "top":"471px",
      "correct":false,
      "selectionHighlight":"assets\/ui\/selection.png"
    },
    {
      "answerID":"4902",
      "image":"assets\/answer\/4000_3.png",
      "left":"540px",
      "top":"471px",
      "correct":true,
      "selectionHighlight":"assets\/ui\/selection.png"
    },
    {
      "answerID":"4903",
      "image":"assets\/answer\/4000_4.png",
      "left":"795px",
      "top":"471px",
      "correct":false,
      "selectionHighlight":"assets\/ui\/selection.png"
    }
  ]
}