{
  "questionID":"604",
  "type":"1",
  "background":"assets\/background\/604_background.png",
  "questionAudio":"audio\/604_question.m4a",
  "choices":[
    {
      "answerID":"2430",
      "image":"assets\/answer\/604_1.png",
      "left":"25px",
      "top":"5px",
      "correct":false,
      "selectionHighlight":"assets\/ui\/604_selection.png"
    },
    {
      "answerID":"2431",
      "image":"assets\/answer\/604_2.png",
      "left":"518px",
      "top":"5px",
      "correct":false,
      "selectionHighlight":"assets\/ui\/604_selection.png"
    },
    {
      "answerID":"2432",
      "image":"assets\/answer\/604_3.png",
      "left":"25px",
      "top":"349px",
      "correct":true,
      "selectionHighlight":"assets\/ui\/604_selection.png"
    },
    {
      "answerID":"2433",
      "image":"assets\/answer\/604_4.png",
      "left":"518px",
      "top":"349px",
      "correct":false,
      "selectionHighlight":"assets\/ui\/604_selection.png"
    }
  ]
}