{
  "questionID":"933",
  "type":"1",
  "background":"assets\/background\/933_background.png",
  "questionAudio":"audio\/933_question.m4a",
  "audioIcon":"assets\/sound_btn.png",
  "choices":[
    {
      "answerID":"3532",
      "image":"assets\/answer\/933_1.png",
      "left":"29px",
      "top":"473px",
      "answerAudio":"audio\/933_1_answer.m4a",
      "correct":false,
      "selectionHighlight":"assets\/ui\/selection.png"
    },
    {
      "answerID":"3533",
      "image":"assets\/answer\/933_2.png",
      "left":"285px",
      "top":"473px",
      "answerAudio":"audio\/933_2_answer.m4a",
      "correct":false,
      "selectionHighlight":"assets\/ui\/selection.png"
    },
    {
      "answerID":"3534",
      "image":"assets\/answer\/933_3.png",
      "left":"540px",
      "top":"473px",
      "answerAudio":"audio\/933_3_answer.m4a",
      "correct":false,
      "selectionHighlight":"assets\/ui\/selection.png"
    },
    {
      "answerID":"3535",
      "image":"assets\/answer\/933_4.png",
      "left":"795px",
      "top":"473px",
      "answerAudio":"audio\/933_4_answer.m4a",
      "correct":true,
      "selectionHighlight":"assets\/ui\/selection.png"
    }
  ]
}