{
  "questionID":"989",
  "type":3,
  "background":"assets\/background\/989_background.png",
  "questionAudio":"audio\/989_question.m4a",
  "targetData":{
    "image":"assets\/ui\/989_droptarget.png",
    "highlight":"assets\/ui\/selection.png",
    "left":"181px",
    "top":"177px"
  },
  "choices":[
    {
      "answerID":"4036",
      "image":"assets\/answer\/989_1.png",
      "left":"29px",
      "top":"471px",
      "correct":true
    },
    {
      "answerID":"4037",
      "image":"assets\/answer\/989_2.png",
      "left":"285px",
      "top":"471px",
      "correct":false
    },
    {
      "answerID":"4038",
      "image":"assets\/answer\/989_3.png",
      "left":"540px",
      "top":"471px",
      "correct":false
    },
    {
      "answerID":"4039",
      "image":"assets\/answer\/989_4.png",
      "left":"795px",
      "top":"471px",
      "correct":false
    }
  ]
}